<?xml version="1.0" encoding="UTF-8"?>
<dia:diagram xmlns:dia="http://www.lysator.liu.se/~alla/dia/">
  <dia:diagramdata>
    <dia:attribute name="background">
      <dia:color val="#ffffff"/>
    </dia:attribute>
    <dia:attribute name="pagebreak">
      <dia:color val="#ffffff"/>
    </dia:attribute>
    <dia:attribute name="paper">
      <dia:composite type="paper">
        <dia:attribute name="name">
          <dia:string>#A4#</dia:string>
        </dia:attribute>
        <dia:attribute name="tmargin">
          <dia:real val="2.8222000598907471"/>
        </dia:attribute>
        <dia:attribute name="bmargin">
          <dia:real val="2.8222000598907471"/>
        </dia:attribute>
        <dia:attribute name="lmargin">
          <dia:real val="2.8222000598907471"/>
        </dia:attribute>
        <dia:attribute name="rmargin">
          <dia:real val="2.8222000598907471"/>
        </dia:attribute>
        <dia:attribute name="is_portrait">
          <dia:boolean val="true"/>
        </dia:attribute>
        <dia:attribute name="scaling">
          <dia:real val="0.37084460258483887"/>
        </dia:attribute>
        <dia:attribute name="fitto">
          <dia:boolean val="true"/>
        </dia:attribute>
        <dia:attribute name="fitwidth">
          <dia:int val="1"/>
        </dia:attribute>
        <dia:attribute name="fitheight">
          <dia:int val="1"/>
        </dia:attribute>
      </dia:composite>
    </dia:attribute>
    <dia:attribute name="grid">
      <dia:composite type="grid">
        <dia:attribute name="width_x">
          <dia:real val="1"/>
        </dia:attribute>
        <dia:attribute name="width_y">
          <dia:real val="1"/>
        </dia:attribute>
        <dia:attribute name="visible_x">
          <dia:int val="1"/>
        </dia:attribute>
        <dia:attribute name="visible_y">
          <dia:int val="1"/>
        </dia:attribute>
        <dia:composite type="color"/>
      </dia:composite>
    </dia:attribute>
    <dia:attribute name="color">
      <dia:color val="#ffffff"/>
    </dia:attribute>
    <dia:attribute name="guides">
      <dia:composite type="guides">
        <dia:attribute name="hguides"/>
        <dia:attribute name="vguides"/>
      </dia:composite>
    </dia:attribute>
  </dia:diagramdata>
  <dia:layer name="Hintergrund" visible="true" active="true">
    <dia:object type="UML - Class" version="0" id="O0">
      <dia:attribute name="obj_pos">
        <dia:point val="29.8544,0.352174"/>
      </dia:attribute>
      <dia:attribute name="obj_bb">
        <dia:rectangle val="29.8044,0.302174;49.2219,10.4022"/>
      </dia:attribute>
      <dia:attribute name="elem_corner">
        <dia:point val="29.8544,0.352174"/>
      </dia:attribute>
      <dia:attribute name="elem_width">
        <dia:real val="19.317500000000003"/>
      </dia:attribute>
      <dia:attribute name="elem_height">
        <dia:real val="10"/>
      </dia:attribute>
      <dia:attribute name="name">
        <dia:string>#Kreis#</dia:string>
      </dia:attribute>
      <dia:attribute name="stereotype">
        <dia:string>##</dia:string>
      </dia:attribute>
      <dia:attribute name="comment">
        <dia:string>##</dia:string>
      </dia:attribute>
      <dia:attribute name="abstract">
        <dia:boolean val="false"/>
      </dia:attribute>
      <dia:attribute name="suppress_attributes">
        <dia:boolean val="false"/>
      </dia:attribute>
      <dia:attribute name="suppress_operations">
        <dia:boolean val="false"/>
      </dia:attribute>
      <dia:attribute name="visible_attributes">
        <dia:boolean val="true"/>
      </dia:attribute>
      <dia:attribute name="visible_operations">
        <dia:boolean val="true"/>
      </dia:attribute>
      <dia:attribute name="visible_comments">
        <dia:boolean val="true"/>
      </dia:attribute>
      <dia:attribute name="wrap_operations">
        <dia:boolean val="false"/>
      </dia:attribute>
      <dia:attribute name="wrap_after_char">
        <dia:int val="40"/>
      </dia:attribute>
      <dia:attribute name="comment_line_length">
        <dia:int val="17"/>
      </dia:attribute>
      <dia:attribute name="comment_tagging">
        <dia:boolean val="false"/>
      </dia:attribute>
      <dia:attribute name="line_width">
        <dia:real val="0.10000000000000001"/>
      </dia:attribute>
      <dia:attribute name="line_color">
        <dia:color val="#000000"/>
      </dia:attribute>
      <dia:attribute name="fill_color">
        <dia:color val="#ffffff"/>
      </dia:attribute>
      <dia:attribute name="text_color">
        <dia:color val="#000000"/>
      </dia:attribute>
      <dia:attribute name="normal_font">
        <dia:font family="monospace" style="0" name="Courier"/>
      </dia:attribute>
      <dia:attribute name="abstract_font">
        <dia:font family="monospace" style="0" name="Courier"/>
      </dia:attribute>
      <dia:attribute name="polymorphic_font">
        <dia:font family="monospace" style="0" name="Courier"/>
      </dia:attribute>
      <dia:attribute name="classname_font">
        <dia:font family="sans" style="80" name="Helvetica-Bold"/>
      </dia:attribute>
      <dia:attribute name="abstract_classname_font">
        <dia:font family="sans" style="0" name="Helvetica"/>
      </dia:attribute>
      <dia:attribute name="comment_font">
        <dia:font family="sans" style="0" name="Helvetica"/>
      </dia:attribute>
      <dia:attribute name="normal_font_height">
        <dia:real val="1"/>
      </dia:attribute>
      <dia:attribute name="polymorphic_font_height">
        <dia:real val="1"/>
      </dia:attribute>
      <dia:attribute name="abstract_font_height">
        <dia:real val="1"/>
      </dia:attribute>
      <dia:attribute name="classname_font_height">
        <dia:real val="1.2000000000000002"/>
      </dia:attribute>
      <dia:attribute name="abstract_classname_font_height">
        <dia:real val="1"/>
      </dia:attribute>
      <dia:attribute name="comment_font_height">
        <dia:real val="0.69999999999999996"/>
      </dia:attribute>
      <dia:attribute name="attributes">
        <dia:composite type="umlattribute">
          <dia:attribute name="name">
            <dia:string>#radius#</dia:string>
          </dia:attribute>
          <dia:attribute name="type">
            <dia:string>#double#</dia:string>
          </dia:attribute>
          <dia:attribute name="value">
            <dia:string>##</dia:string>
          </dia:attribute>
          <dia:attribute name="comment">
            <dia:string>##</dia:string>
          </dia:attribute>
          <dia:attribute name="visibility">
            <dia:enum val="1"/>
          </dia:attribute>
          <dia:attribute name="abstract">
            <dia:boolean val="false"/>
          </dia:attribute>
          <dia:attribute name="class_scope">
            <dia:boolean val="false"/>
          </dia:attribute>
        </dia:composite>
        <dia:composite type="umlattribute">
          <dia:attribute name="name">
            <dia:string>##</dia:string>
          </dia:attribute>
          <dia:attribute name="type">
            <dia:string>##</dia:string>
          </dia:attribute>
          <dia:attribute name="value">
            <dia:string>##</dia:string>
          </dia:attribute>
          <dia:attribute name="comment">
            <dia:string>##</dia:string>
          </dia:attribute>
          <dia:attribute name="visibility">
            <dia:enum val="3"/>
          </dia:attribute>
          <dia:attribute name="abstract">
            <dia:boolean val="false"/>
          </dia:attribute>
          <dia:attribute name="class_scope">
            <dia:boolean val="false"/>
          </dia:attribute>
        </dia:composite>
        <dia:composite type="umlattribute">
          <dia:attribute name="name">
            <dia:string>#Radius {get; set;}#</dia:string>
          </dia:attribute>
          <dia:attribute name="type">
            <dia:string>#double#</dia:string>
          </dia:attribute>
          <dia:attribute name="value">
            <dia:string>##</dia:string>
          </dia:attribute>
          <dia:attribute name="comment">
            <dia:string>##</dia:string>
          </dia:attribute>
          <dia:attribute name="visibility">
            <dia:enum val="0"/>
          </dia:attribute>
          <dia:attribute name="abstract">
            <dia:boolean val="false"/>
          </dia:attribute>
          <dia:attribute name="class_scope">
            <dia:boolean val="false"/>
          </dia:attribute>
        </dia:composite>
        <dia:composite type="umlattribute">
          <dia:attribute name="name">
            <dia:string>#Mittelpunkt {get;set;}#</dia:string>
          </dia:attribute>
          <dia:attribute name="type">
            <dia:string>#Point#</dia:string>
          </dia:attribute>
          <dia:attribute name="value">
            <dia:string>##</dia:string>
          </dia:attribute>
          <dia:attribute name="comment">
            <dia:string>##</dia:string>
          </dia:attribute>
          <dia:attribute name="visibility">
            <dia:enum val="0"/>
          </dia:attribute>
          <dia:attribute name="abstract">
            <dia:boolean val="false"/>
          </dia:attribute>
          <dia:attribute name="class_scope">
            <dia:boolean val="false"/>
          </dia:attribute>
        </dia:composite>
        <dia:composite type="umlattribute">
          <dia:attribute name="name">
            <dia:string>#Durchmesser {get;}#</dia:string>
          </dia:attribute>
          <dia:attribute name="type">
            <dia:string>#double#</dia:string>
          </dia:attribute>
          <dia:attribute name="value">
            <dia:string>##</dia:string>
          </dia:attribute>
          <dia:attribute name="comment">
            <dia:string>##</dia:string>
          </dia:attribute>
          <dia:attribute name="visibility">
            <dia:enum val="0"/>
          </dia:attribute>
          <dia:attribute name="abstract">
            <dia:boolean val="false"/>
          </dia:attribute>
          <dia:attribute name="class_scope">
            <dia:boolean val="false"/>
          </dia:attribute>
        </dia:composite>
        <dia:composite type="umlattribute">
          <dia:attribute name="name">
            <dia:string>#Flaeche {get;}#</dia:string>
          </dia:attribute>
          <dia:attribute name="type">
            <dia:string>#double#</dia:string>
          </dia:attribute>
          <dia:attribute name="value">
            <dia:string>##</dia:string>
          </dia:attribute>
          <dia:attribute name="comment">
            <dia:string>##</dia:string>
          </dia:attribute>
          <dia:attribute name="visibility">
            <dia:enum val="0"/>
          </dia:attribute>
          <dia:attribute name="abstract">
            <dia:boolean val="false"/>
          </dia:attribute>
          <dia:attribute name="class_scope">
            <dia:boolean val="false"/>
          </dia:attribute>
        </dia:composite>
        <dia:composite type="umlattribute">
          <dia:attribute name="name">
            <dia:string>#Umfang{get;}#</dia:string>
          </dia:attribute>
          <dia:attribute name="type">
            <dia:string>#double#</dia:string>
          </dia:attribute>
          <dia:attribute name="value">
            <dia:string>##</dia:string>
          </dia:attribute>
          <dia:attribute name="comment">
            <dia:string>##</dia:string>
          </dia:attribute>
          <dia:attribute name="visibility">
            <dia:enum val="0"/>
          </dia:attribute>
          <dia:attribute name="abstract">
            <dia:boolean val="false"/>
          </dia:attribute>
          <dia:attribute name="class_scope">
            <dia:boolean val="false"/>
          </dia:attribute>
        </dia:composite>
      </dia:attribute>
      <dia:attribute name="operations">
        <dia:composite type="umloperation">
          <dia:attribute name="name">
            <dia:string>#Kreis#</dia:string>
          </dia:attribute>
          <dia:attribute name="stereotype">
            <dia:string>##</dia:string>
          </dia:attribute>
          <dia:attribute name="type">
            <dia:string>##</dia:string>
          </dia:attribute>
          <dia:attribute name="visibility">
            <dia:enum val="0"/>
          </dia:attribute>
          <dia:attribute name="comment">
            <dia:string>##</dia:string>
          </dia:attribute>
          <dia:attribute name="abstract">
            <dia:boolean val="false"/>
          </dia:attribute>
          <dia:attribute name="inheritance_type">
            <dia:enum val="2"/>
          </dia:attribute>
          <dia:attribute name="query">
            <dia:boolean val="false"/>
          </dia:attribute>
          <dia:attribute name="class_scope">
            <dia:boolean val="false"/>
          </dia:attribute>
          <dia:attribute name="parameters">
            <dia:composite type="umlparameter">
              <dia:attribute name="name">
                <dia:string>#radius#</dia:string>
              </dia:attribute>
              <dia:attribute name="type">
                <dia:string>#double#</dia:string>
              </dia:attribute>
              <dia:attribute name="value">
                <dia:string>##</dia:string>
              </dia:attribute>
              <dia:attribute name="comment">
                <dia:string>##</dia:string>
              </dia:attribute>
              <dia:attribute name="kind">
                <dia:enum val="0"/>
              </dia:attribute>
            </dia:composite>
            <dia:composite type="umlparameter">
              <dia:attribute name="name">
                <dia:string>#mittelpunkt#</dia:string>
              </dia:attribute>
              <dia:attribute name="type">
                <dia:string>#Point#</dia:string>
              </dia:attribute>
              <dia:attribute name="value">
                <dia:string>##</dia:string>
              </dia:attribute>
              <dia:attribute name="comment">
                <dia:string>##</dia:string>
              </dia:attribute>
              <dia:attribute name="kind">
                <dia:enum val="0"/>
              </dia:attribute>
            </dia:composite>
          </dia:attribute>
        </dia:composite>
      </dia:attribute>
      <dia:attribute name="template">
        <dia:boolean val="false"/>
      </dia:attribute>
      <dia:attribute name="templates"/>
    </dia:object>
    <dia:object type="Standard - Line" version="0" id="O1">
      <dia:attribute name="obj_pos">
        <dia:point val="29.8544,3.55217"/>
      </dia:attribute>
      <dia:attribute name="obj_bb">
        <dia:rectangle val="29.8044,3.50217;49.2219,3.60217"/>
      </dia:attribute>
      <dia:attribute name="conn_endpoints">
        <dia:point val="29.8544,3.55217"/>
        <dia:point val="49.1719,3.55217"/>
      </dia:attribute>
      <dia:attribute name="numcp">
        <dia:int val="1"/>
      </dia:attribute>
      <dia:connections>
        <dia:connection handle="0" to="O0" connection="10"/>
        <dia:connection handle="1" to="O0" connection="11"/>
      </dia:connections>
    </dia:object>
    <dia:object type="UML - Class" version="0" id="O2">
      <dia:attribute name="obj_pos">
        <dia:point val="51.844,-0.225"/>
      </dia:attribute>
      <dia:attribute name="obj_bb">
        <dia:rectangle val="51.794,-0.275;71.2115,11.825"/>
      </dia:attribute>
      <dia:attribute name="elem_corner">
        <dia:point val="51.844,-0.225"/>
      </dia:attribute>
      <dia:attribute name="elem_width">
        <dia:real val="19.317500000000003"/>
      </dia:attribute>
      <dia:attribute name="elem_height">
        <dia:real val="12"/>
      </dia:attribute>
      <dia:attribute name="name">
        <dia:string>#Kreis#</dia:string>
      </dia:attribute>
      <dia:attribute name="stereotype">
        <dia:string>##</dia:string>
      </dia:attribute>
      <dia:attribute name="comment">
        <dia:string>##</dia:string>
      </dia:attribute>
      <dia:attribute name="abstract">
        <dia:boolean val="false"/>
      </dia:attribute>
      <dia:attribute name="suppress_attributes">
        <dia:boolean val="false"/>
      </dia:attribute>
      <dia:attribute name="suppress_operations">
        <dia:boolean val="false"/>
      </dia:attribute>
      <dia:attribute name="visible_attributes">
        <dia:boolean val="true"/>
      </dia:attribute>
      <dia:attribute name="visible_operations">
        <dia:boolean val="true"/>
      </dia:attribute>
      <dia:attribute name="visible_comments">
        <dia:boolean val="true"/>
      </dia:attribute>
      <dia:attribute name="wrap_operations">
        <dia:boolean val="false"/>
      </dia:attribute>
      <dia:attribute name="wrap_after_char">
        <dia:int val="40"/>
      </dia:attribute>
      <dia:attribute name="comment_line_length">
        <dia:int val="17"/>
      </dia:attribute>
      <dia:attribute name="comment_tagging">
        <dia:boolean val="false"/>
      </dia:attribute>
      <dia:attribute name="line_width">
        <dia:real val="0.10000000000000001"/>
      </dia:attribute>
      <dia:attribute name="line_color">
        <dia:color val="#000000"/>
      </dia:attribute>
      <dia:attribute name="fill_color">
        <dia:color val="#ffffff"/>
      </dia:attribute>
      <dia:attribute name="text_color">
        <dia:color val="#000000"/>
      </dia:attribute>
      <dia:attribute name="normal_font">
        <dia:font family="monospace" style="0" name="Courier"/>
      </dia:attribute>
      <dia:attribute name="abstract_font">
        <dia:font family="monospace" style="0" name="Courier"/>
      </dia:attribute>
      <dia:attribute name="polymorphic_font">
        <dia:font family="monospace" style="0" name="Courier"/>
      </dia:attribute>
      <dia:attribute name="classname_font">
        <dia:font family="sans" style="80" name="Helvetica-Bold"/>
      </dia:attribute>
      <dia:attribute name="abstract_classname_font">
        <dia:font family="sans" style="0" name="Helvetica"/>
      </dia:attribute>
      <dia:attribute name="comment_font">
        <dia:font family="sans" style="0" name="Helvetica"/>
      </dia:attribute>
      <dia:attribute name="normal_font_height">
        <dia:real val="1"/>
      </dia:attribute>
      <dia:attribute name="polymorphic_font_height">
        <dia:real val="1"/>
      </dia:attribute>
      <dia:attribute name="abstract_font_height">
        <dia:real val="1"/>
      </dia:attribute>
      <dia:attribute name="classname_font_height">
        <dia:real val="1.2000000000000002"/>
      </dia:attribute>
      <dia:attribute name="abstract_classname_font_height">
        <dia:real val="1"/>
      </dia:attribute>
      <dia:attribute name="comment_font_height">
        <dia:real val="0.69999999999999996"/>
      </dia:attribute>
      <dia:attribute name="attributes">
        <dia:composite type="umlattribute">
          <dia:attribute name="name">
            <dia:string>#radius#</dia:string>
          </dia:attribute>
          <dia:attribute name="type">
            <dia:string>#double#</dia:string>
          </dia:attribute>
          <dia:attribute name="value">
            <dia:string>##</dia:string>
          </dia:attribute>
          <dia:attribute name="comment">
            <dia:string>##</dia:string>
          </dia:attribute>
          <dia:attribute name="visibility">
            <dia:enum val="1"/>
          </dia:attribute>
          <dia:attribute name="abstract">
            <dia:boolean val="false"/>
          </dia:attribute>
          <dia:attribute name="class_scope">
            <dia:boolean val="false"/>
          </dia:attribute>
        </dia:composite>
        <dia:composite type="umlattribute">
          <dia:attribute name="name">
            <dia:string>#mittelpunkt#</dia:string>
          </dia:attribute>
          <dia:attribute name="type">
            <dia:string>#Point#</dia:string>
          </dia:attribute>
          <dia:attribute name="value">
            <dia:string>##</dia:string>
          </dia:attribute>
          <dia:attribute name="comment">
            <dia:string>##</dia:string>
          </dia:attribute>
          <dia:attribute name="visibility">
            <dia:enum val="1"/>
          </dia:attribute>
          <dia:attribute name="abstract">
            <dia:boolean val="false"/>
          </dia:attribute>
          <dia:attribute name="class_scope">
            <dia:boolean val="false"/>
          </dia:attribute>
        </dia:composite>
      </dia:attribute>
      <dia:attribute name="operations">
        <dia:composite type="umloperation">
          <dia:attribute name="name">
            <dia:string>#Kreis#</dia:string>
          </dia:attribute>
          <dia:attribute name="stereotype">
            <dia:string>##</dia:string>
          </dia:attribute>
          <dia:attribute name="type">
            <dia:string>##</dia:string>
          </dia:attribute>
          <dia:attribute name="visibility">
            <dia:enum val="0"/>
          </dia:attribute>
          <dia:attribute name="comment">
            <dia:string>##</dia:string>
          </dia:attribute>
          <dia:attribute name="abstract">
            <dia:boolean val="false"/>
          </dia:attribute>
          <dia:attribute name="inheritance_type">
            <dia:enum val="2"/>
          </dia:attribute>
          <dia:attribute name="query">
            <dia:boolean val="false"/>
          </dia:attribute>
          <dia:attribute name="class_scope">
            <dia:boolean val="false"/>
          </dia:attribute>
          <dia:attribute name="parameters">
            <dia:composite type="umlparameter">
              <dia:attribute name="name">
                <dia:string>#radius#</dia:string>
              </dia:attribute>
              <dia:attribute name="type">
                <dia:string>#double#</dia:string>
              </dia:attribute>
              <dia:attribute name="value">
                <dia:string>##</dia:string>
              </dia:attribute>
              <dia:attribute name="comment">
                <dia:string>##</dia:string>
              </dia:attribute>
              <dia:attribute name="kind">
                <dia:enum val="0"/>
              </dia:attribute>
            </dia:composite>
            <dia:composite type="umlparameter">
              <dia:attribute name="name">
                <dia:string>#mittelpunkt#</dia:string>
              </dia:attribute>
              <dia:attribute name="type">
                <dia:string>#Point#</dia:string>
              </dia:attribute>
              <dia:attribute name="value">
                <dia:string>##</dia:string>
              </dia:attribute>
              <dia:attribute name="comment">
                <dia:string>##</dia:string>
              </dia:attribute>
              <dia:attribute name="kind">
                <dia:enum val="0"/>
              </dia:attribute>
            </dia:composite>
          </dia:attribute>
        </dia:composite>
        <dia:composite type="umloperation">
          <dia:attribute name="name">
            <dia:string>#getRadius#</dia:string>
          </dia:attribute>
          <dia:attribute name="stereotype">
            <dia:string>##</dia:string>
          </dia:attribute>
          <dia:attribute name="type">
            <dia:string>#double#</dia:string>
          </dia:attribute>
          <dia:attribute name="visibility">
            <dia:enum val="0"/>
          </dia:attribute>
          <dia:attribute name="comment">
            <dia:string>##</dia:string>
          </dia:attribute>
          <dia:attribute name="abstract">
            <dia:boolean val="false"/>
          </dia:attribute>
          <dia:attribute name="inheritance_type">
            <dia:enum val="2"/>
          </dia:attribute>
          <dia:attribute name="query">
            <dia:boolean val="false"/>
          </dia:attribute>
          <dia:attribute name="class_scope">
            <dia:boolean val="false"/>
          </dia:attribute>
          <dia:attribute name="parameters"/>
        </dia:composite>
        <dia:composite type="umloperation">
          <dia:attribute name="name">
            <dia:string>#setRadius#</dia:string>
          </dia:attribute>
          <dia:attribute name="stereotype">
            <dia:string>##</dia:string>
          </dia:attribute>
          <dia:attribute name="type">
            <dia:string>##</dia:string>
          </dia:attribute>
          <dia:attribute name="visibility">
            <dia:enum val="0"/>
          </dia:attribute>
          <dia:attribute name="comment">
            <dia:string>##</dia:string>
          </dia:attribute>
          <dia:attribute name="abstract">
            <dia:boolean val="false"/>
          </dia:attribute>
          <dia:attribute name="inheritance_type">
            <dia:enum val="2"/>
          </dia:attribute>
          <dia:attribute name="query">
            <dia:boolean val="false"/>
          </dia:attribute>
          <dia:attribute name="class_scope">
            <dia:boolean val="false"/>
          </dia:attribute>
          <dia:attribute name="parameters">
            <dia:composite type="umlparameter">
              <dia:attribute name="name">
                <dia:string>#radius#</dia:string>
              </dia:attribute>
              <dia:attribute name="type">
                <dia:string>#double#</dia:string>
              </dia:attribute>
              <dia:attribute name="value">
                <dia:string>##</dia:string>
              </dia:attribute>
              <dia:attribute name="comment">
                <dia:string>##</dia:string>
              </dia:attribute>
              <dia:attribute name="kind">
                <dia:enum val="0"/>
              </dia:attribute>
            </dia:composite>
          </dia:attribute>
        </dia:composite>
        <dia:composite type="umloperation">
          <dia:attribute name="name">
            <dia:string>#getMittelpunkt#</dia:string>
          </dia:attribute>
          <dia:attribute name="stereotype">
            <dia:string>##</dia:string>
          </dia:attribute>
          <dia:attribute name="type">
            <dia:string>#Point #</dia:string>
          </dia:attribute>
          <dia:attribute name="visibility">
            <dia:enum val="0"/>
          </dia:attribute>
          <dia:attribute name="comment">
            <dia:string>##</dia:string>
          </dia:attribute>
          <dia:attribute name="abstract">
            <dia:boolean val="false"/>
          </dia:attribute>
          <dia:attribute name="inheritance_type">
            <dia:enum val="2"/>
          </dia:attribute>
          <dia:attribute name="query">
            <dia:boolean val="false"/>
          </dia:attribute>
          <dia:attribute name="class_scope">
            <dia:boolean val="false"/>
          </dia:attribute>
          <dia:attribute name="parameters"/>
        </dia:composite>
        <dia:composite type="umloperation">
          <dia:attribute name="name">
            <dia:string>#setMittelpunkt#</dia:string>
          </dia:attribute>
          <dia:attribute name="stereotype">
            <dia:string>##</dia:string>
          </dia:attribute>
          <dia:attribute name="type">
            <dia:string>##</dia:string>
          </dia:attribute>
          <dia:attribute name="visibility">
            <dia:enum val="0"/>
          </dia:attribute>
          <dia:attribute name="comment">
            <dia:string>##</dia:string>
          </dia:attribute>
          <dia:attribute name="abstract">
            <dia:boolean val="false"/>
          </dia:attribute>
          <dia:attribute name="inheritance_type">
            <dia:enum val="2"/>
          </dia:attribute>
          <dia:attribute name="query">
            <dia:boolean val="false"/>
          </dia:attribute>
          <dia:attribute name="class_scope">
            <dia:boolean val="false"/>
          </dia:attribute>
          <dia:attribute name="parameters">
            <dia:composite type="umlparameter">
              <dia:attribute name="name">
                <dia:string>#mittelpunkt#</dia:string>
              </dia:attribute>
              <dia:attribute name="type">
                <dia:string>#Point#</dia:string>
              </dia:attribute>
              <dia:attribute name="value">
                <dia:string>##</dia:string>
              </dia:attribute>
              <dia:attribute name="comment">
                <dia:string>##</dia:string>
              </dia:attribute>
              <dia:attribute name="kind">
                <dia:enum val="0"/>
              </dia:attribute>
            </dia:composite>
          </dia:attribute>
        </dia:composite>
        <dia:composite type="umloperation">
          <dia:attribute name="name">
            <dia:string>#getFlaeche#</dia:string>
          </dia:attribute>
          <dia:attribute name="stereotype">
            <dia:string>##</dia:string>
          </dia:attribute>
          <dia:attribute name="type">
            <dia:string>#double #</dia:string>
          </dia:attribute>
          <dia:attribute name="visibility">
            <dia:enum val="0"/>
          </dia:attribute>
          <dia:attribute name="comment">
            <dia:string>##</dia:string>
          </dia:attribute>
          <dia:attribute name="abstract">
            <dia:boolean val="false"/>
          </dia:attribute>
          <dia:attribute name="inheritance_type">
            <dia:enum val="2"/>
          </dia:attribute>
          <dia:attribute name="query">
            <dia:boolean val="false"/>
          </dia:attribute>
          <dia:attribute name="class_scope">
            <dia:boolean val="false"/>
          </dia:attribute>
          <dia:attribute name="parameters"/>
        </dia:composite>
        <dia:composite type="umloperation">
          <dia:attribute name="name">
            <dia:string>#getUmfang#</dia:string>
          </dia:attribute>
          <dia:attribute name="stereotype">
            <dia:string>##</dia:string>
          </dia:attribute>
          <dia:attribute name="type">
            <dia:string>#double#</dia:string>
          </dia:attribute>
          <dia:attribute name="visibility">
            <dia:enum val="0"/>
          </dia:attribute>
          <dia:attribute name="comment">
            <dia:string>##</dia:string>
          </dia:attribute>
          <dia:attribute name="abstract">
            <dia:boolean val="false"/>
          </dia:attribute>
          <dia:attribute name="inheritance_type">
            <dia:enum val="2"/>
          </dia:attribute>
          <dia:attribute name="query">
            <dia:boolean val="false"/>
          </dia:attribute>
          <dia:attribute name="class_scope">
            <dia:boolean val="false"/>
          </dia:attribute>
          <dia:attribute name="parameters"/>
        </dia:composite>
        <dia:composite type="umloperation">
          <dia:attribute name="name">
            <dia:string>#getDurchmesser#</dia:string>
          </dia:attribute>
          <dia:attribute name="stereotype">
            <dia:string>##</dia:string>
          </dia:attribute>
          <dia:attribute name="type">
            <dia:string>#double #</dia:string>
          </dia:attribute>
          <dia:attribute name="visibility">
            <dia:enum val="0"/>
          </dia:attribute>
          <dia:attribute name="comment">
            <dia:string>##</dia:string>
          </dia:attribute>
          <dia:attribute name="abstract">
            <dia:boolean val="false"/>
          </dia:attribute>
          <dia:attribute name="inheritance_type">
            <dia:enum val="2"/>
          </dia:attribute>
          <dia:attribute name="query">
            <dia:boolean val="false"/>
          </dia:attribute>
          <dia:attribute name="class_scope">
            <dia:boolean val="false"/>
          </dia:attribute>
          <dia:attribute name="parameters"/>
        </dia:composite>
      </dia:attribute>
      <dia:attribute name="template">
        <dia:boolean val="false"/>
      </dia:attribute>
      <dia:attribute name="templates"/>
    </dia:object>
  </dia:layer>
</dia:diagram>
